{
	"condensed_data":[{
		"entry_id":"ddk99fk3",
		"equipment_id":"nskwoxje",
		"serial_number":"1823934800002401",
		"type":"smartphone",
		"name":"Samsung Galaxy S9",
		"thumbnail_url":"images/thumbs/samsung_galaxy_s9.png",
		"owner_id":"83rd837o",
		"owner_name":"Vlad David",
		"owner_picture_url":"images/profile_images/vlad_david.png",
		"assigned_time":"153981014807"
	},
	{
		"entry_id":"ddk99fk3",
		"equipment_id":"abcde",
		"serial_number":"1823934800002401",
		"type":"smartphone",
		"name":"Samsung Galaxy S9",
		"thumbnail_url":"images/thumbs/samsung_galaxy_s9.png",
		"owner_id":"83rd837o",
		"owner_name":"Magda Vasile",
		"owner_picture_url":"images/profile_images/magda_vasile.png",
		"assigned_time":"153981014807"
	},
	{
		"entry_id":"rdk89fo3",
		"equipment_id":"lafojenr",
		"serial_number":"2820034800002401",
		"type":"monitor",
		"name":"HP Monitor 24\"",
		"thumbnail_url":"images/thumbs/hp_monitor.png",
		"owner_id":"18rd837o",
		"owner_name":"Adela Rus",
		"owner_picture_url":"images/profile_images/adela_rus.png",
		"assigned_time":"153981194807"
	},
	{
		"entry_id":"ofk3ksub",
		"equipment_id":"kasdjism",
		"serial_number":"9001234804002401",
		"type":"notebook",
		"name":"HP Laptop 15\"",
		"thumbnail_url":"images/thumbs/hp_laptop.png",
		"owner_id":"9384fkws",
		"owner_name":"Miruna Radu",
		"owner_picture_url":"images/profile_images/miruna_radu.png",
		"assigned_time":"153981994807"
	},
	{
		"entry_id":"ofk3ksub",
		"equipment_id":"abcdef",
		"serial_number":"9001234804002401",
		"type":"notebook",
		"name":"HP Laptop 15\"",
		"thumbnail_url":"images/thumbs/hp_laptop.png",
		"owner_id":"9384fkws",
		"owner_name":"Magda Vasile",
		"owner_picture_url":"images/profile_images/magda_vasile.png",
		"assigned_time":"153981994807"
	},
	{
		"entry_id":"ofk3ksub",
		"equipment_id":"abcdff",
		"serial_number":"9001234804002401",
		"type":"notebook",
		"name":"HP Laptop 15\"",
		"thumbnail_url":"images/thumbs/hp_laptop.png",
		"owner_id":"9384fkws",
		"owner_name":"Andrei Hegyesi",
		"owner_picture_url":"images/profile_images/andrei_hegyesi.png",
		"assigned_time":"153981994807"
	},
	{
		"entry_id":"oskf8el2",
		"equipment_id":"kajsdpfe",
		"serial_number":"8001004804002401",
		"type":"smartphone",
		"name":"Google Nexus 5",
		"thumbnail_url":"images/thumbs/google_nexus_5.png",
		"owner_id":"92kflso2",
		"owner_name":"Szabolcs Bagoly",
		"owner_picture_url":"images/profile_images/szabolcs_bagoly.png",
		"assigned_time":"153981894807"
	},
	{
		"entry_id":"3948sk8d",
		"equipment_id":"icjlwozk",
		"serial_number":"1001004899002401",
		"type":"notebook",
		"name":"MacBook Pro",
		"thumbnail_url":"images/thumbs/apple_macbook_pro.png",
		"owner_id":"839d8374",
		"owner_name":"Catalin Jurjiu",
		"owner_picture_url":"images/profile_images/catalin_jurjiu.png",
		"assigned_time":"1539817153607"
	},
	{
		"entry_id":"8dk29fk3",
		"equipment_id":"ghsoxloi",
		"serial_number":"0111004994002401",
		"type":"notebook",
		"name":"MacBook Pro",
		"thumbnail_url":"images/thumbs/apple_macbook_pro.png",
		"owner_id":"839d8374",
		"owner_name":"Mihai Nemes",
		"owner_picture_url":"images/profile_images/mihai_nemes.png",
		"assigned_time":"1539817113607"
	},
	{
		"entry_id":"psd8iw7f",
		"equipment_id":"asdkpass",
		"serial_number":"0101004004002441",
		"type":"smartphone",
		"name":"Apple Iphone 6",
		"thumbnail_url":"images/thumbs/apple_iphone_6.png",
		"owner_id":"83kdjjs7",
		"owner_name":"Mircea Vasiliniuc",
		"owner_picture_url":"images/profile_images/mircea_vasiliniuc.png",
		"assigned_time":"1539617153607"
	},
	{
		"entry_id":"ksif830s",
		"equipment_id":"aksdpoaf",
		"serial_number":"0912483000011094",
		"type":"tablet",
		"name":"iPad Pro 2017",
		"thumbnail_url":"images/thumbs/apple_ipad_pro.png",
		"owner_id":"kidokefk",
		"owner_name":"Mihai Neaga",
		"owner_picture_url":"images/profile_images/mihai_neaga.png",
		"assigned_time":"1539807153607"
	},
	{
		"entry_id":"rdk89fo3",
		"equipment_id":"lafojenr",
		"serial_number":"2820034800002401",
		"type":"monitor",
		"name":"HP Monitor 24\"",
		"thumbnail_url":"images/thumbs/hp_monitor.png",
		"owner_id":"18rd837o",
		"owner_name":"Adela Rus",
		"owner_picture_url":"images/profile_images/adela_rus.png",
		"assigned_time":"153981194807"
	},
	{
		"entry_id":"ofk3ksub",
		"equipment_id":"kasdjism",
		"serial_number":"9001234804002401",
		"type":"notebook",
		"name":"HP Laptop 15\"",
		"thumbnail_url":"images/thumbs/hp_laptop.png",
		"owner_id":"9384fkws",
		"owner_name":"Miruna Radu",
		"owner_picture_url":"images/profile_images/miruna_radu.png",
		"assigned_time":"153981994807"
	},
	{
		"entry_id":"oskf8el2",
		"equipment_id":"kajsdpfe",
		"serial_number":"8001004804002401",
		"type":"smartphone",
		"name":"Google Nexus 5",
		"thumbnail_url":"images/thumbs/google_nexus_5.png",
		"owner_id":"92kflso2",
		"owner_name":"Szabolcs Bagoly",
		"owner_picture_url":"images/profile_images/szabolcs_bagoly.png",
		"assigned_time":"153981894807"
	},
	{
		"entry_id":"3948sk8d",
		"equipment_id":"icjlwozk",
		"serial_number":"1001004899002401",
		"type":"notebook",
		"name":"MacBook Pro",
		"thumbnail_url":"images/thumbs/apple_macbook_pro.png",
		"owner_id":"839d8374",
		"owner_name":"Catalin Jurjiu",
		"owner_picture_url":"images/profile_images/catalin_jurjiu.png",
		"assigned_time":"1539817153607"
	},
	{
		"entry_id":"8dk29fk3",
		"equipment_id":"ghsoxloi",
		"serial_number":"0111004994002401",
		"type":"notebook",
		"name":"MacBook Pro",
		"thumbnail_url":"images/thumbs/apple_macbook_pro.png",
		"owner_id":"839d8374",
		"owner_name":"Mihai Nemes",
		"owner_picture_url":"images/profile_images/mihai_nemes.png",
		"assigned_time":"1539817113607"
	},
	{
		"entry_id":"psd8iw7f",
		"equipment_id":"asdkpass",
		"serial_number":"0101004004002441",
		"type":"smartphone",
		"name":"Apple Iphone 6",
		"thumbnail_url":"images/thumbs/apple_iphone_6.png",
		"owner_id":"83kdjjs7",
		"owner_name":"Mircea Vasiliniuc",
		"owner_picture_url":"images/profile_images/mircea_vasiliniuc.png",
		"assigned_time":"1539617153607"
	},
	{
		"entry_id":"ksif830s",
		"equipment_id":"aksdpoaf",
		"serial_number":"0912483000011094",
		"type":"tablet",
		"name":"iPad Pro 2017",
		"thumbnail_url":"images/thumbs/apple_ipad_pro.png",
		"owner_id":"kidokefk",
		"owner_name":"Mihai Neaga",
		"owner_picture_url":"images/profile_images/mihai_neaga.png",
		"assigned_time":"1539807153607"
	}]
}