{
	"entry_id":"ofk3ksub",
	"equipment":{
		"id":"abcdef",
		"serial_number":"9001234804002401",
		"type":"notebook",
		"name":"HP Laptop 15\"",
		"production_year":"2018",
		"manufacturer":"HP Inc.",
		"image_url":"images/full_res/hp_laptop.png"
	},
	"owner":{
		"id":"1384fkws",
		"name":"Magda Vasile",
		"picture_url":"images/profile_images/magda_vasile.png",
		"assigned_time":"153981994807"
	},
	"team_info":{
		"id":"9wekfow2",
		"name":"NextTech",
		"picture_url":"images/teams/nexttech.png"
	},
	"warranty":{
		"provider":"PC Garage S.R.L.",
	 	"expiration_date":"153983919823"
	}
}