{
	"entry_id":"rdk89fo3",
	"equipment":{
		"id":"lafojenr",
		"serial_number":"2820034800002401",
		"type":"monitor",
		"name":"HP Monitor 24\"",
		"production_year":"2017",
		"manufacturer":"HP Inc.",
		"image_url":"images/full_res/hp_monitor.png"
	},
	"owner":{
		"id":"18rd837o",
		"name":"Adela Rus",
		"picture_url":"images/profile_images/adela_rus.png",
		"assigned_time":"153981194807"
	},
	"team_info":{
		"id":"9ekf83ls",
		"name":"Danube FE",
		"picture_url":"images/teams/danube.png"
	},
	"warranty":{
		"provider":"Emag S.R.L.",
	 	"expiration_date":"153982919823"
	}
}