{
	"owners":[{
		"id":"83rd837o",
		"name":"Vlad David",
		"picture_url":"images/profile_images/vlad_david.png",
		"assigned_time":"153981014807"
	},{
		"id":"18rd837o",
		"name":"Adela Rus",
		"picture_url":"images/profile_images/adela_rus.png",
		"assigned_time":"153981194807"
	},{
		"id":"9384fkws",
		"name":"Miruna Radu",
		"picture_url":"images/profile_images/miruna_radu.png",
		"assigned_time":"153981994807"
	},{
		"id":"92kflso2",
		"name":"Szabolcs Bagoly",
		"picture_url":"images/profile_images/szabolcs_bagoly.png",
		"assigned_time":"153981894807"
	},{
		"id":"839d8374",
		"name":"Catalin Jurjiu",
		"picture_url":"images/profile_images/catalin_jurjiu.png",
		"assigned_time":"1539817153607"
	},{
		"id":"83kdjjs7",
		"name":"Mircea Vasiliniuc",
		"picture_url":"images/profile_images/mircea_vasiliniuc.png",
		"assigned_time":"1539617153607"
	}]
}